1024, 0.600000, 1, 5, 6, 3
1024, 0.600000, 1, 5, 6, 3
1024, 0.600000, 1, 5, 6, 3
1024, 0.600000, 1, 5, 7, 3
1024, 0.600000, 1, 5, 6, 3
1024, 0.600000, 1, 5, 6, 3
1024, 0.600000, 1, 5, 6, 3
1024, 0.600000, 1, 5, 6, 3
1024, 0.600000, 1, 5, 6, 3
1024, 0.600000, 1, 5, 6, 3
1024, 1.100000, 1, 5, 6, 3
1024, 1.100000, 1, 5, 6, 3
1024, 1.100000, 1, 5, 6, 3
1024, 1.100000, 1, 5, 6, 3
1024, 1.100000, 1, 5, 6, 4
1024, 1.100000, 1, 5, 6, 3
1024, 1.100000, 1, 5, 6, 3
1024, 1.100000, 1, 5, 6, 3
1024, 1.100000, 1, 5, 6, 3
1024, 1.100000, 1, 5, 6, 3
2048, 0.600000, 4, 16, 20, 12
2048, 0.600000, 4, 16, 21, 13
2048, 0.600000, 4, 16, 21, 13
2048, 0.600000, 4, 16, 20, 13
2048, 0.600000, 4, 16, 20, 13
2048, 0.600000, 4, 16, 20, 13
2048, 0.600000, 4, 16, 21, 12
2048, 0.600000, 4, 16, 21, 13
2048, 0.600000, 4, 16, 20, 13
2048, 0.600000, 4, 16, 21, 13
2048, 1.100000, 6, 16, 20, 13
2048, 1.100000, 6, 16, 21, 13
2048, 1.100000, 6, 16, 20, 13
2048, 1.100000, 6, 16, 21, 13
2048, 1.100000, 6, 16, 20, 13
2048, 1.100000, 6, 16, 20, 12
2048, 1.100000, 6, 16, 21, 13
2048, 1.100000, 6, 16, 20, 12
2048, 1.100000, 6, 16, 20, 13
2048, 1.100000, 6, 16, 21, 13
4096, 0.600000, 16, 62, 79, 46
4096, 0.600000, 16, 62, 79, 50
4096, 0.600000, 16, 62, 79, 50
4096, 0.600000, 16, 62, 79, 50
4096, 0.600000, 16, 62, 79, 50
4096, 0.600000, 16, 62, 79, 45
4096, 0.600000, 16, 62, 78, 50
4096, 0.600000, 16, 62, 79, 50
4096, 0.600000, 16, 63, 80, 49
4096, 0.600000, 16, 62, 79, 50
4096, 1.100000, 23, 63, 80, 50
4096, 1.100000, 23, 62, 79, 50
4096, 1.100000, 23, 61, 78, 50
4096, 1.100000, 23, 62, 79, 50
4096, 1.100000, 23, 62, 79, 50
4096, 1.100000, 23, 62, 79, 49
4096, 1.100000, 23, 62, 79, 49
4096, 1.100000, 23, 61, 78, 50
4096, 1.100000, 23, 62, 79, 49
4096, 1.100000, 23, 63, 80, 50
7680, 0.600000, 61, 215, 275, 179
7680, 0.600000, 61, 219, 278, 191
7680, 0.600000, 61, 214, 274, 184
7680, 0.600000, 61, 217, 276, 191
7680, 0.600000, 61, 217, 276, 190
7680, 0.600000, 61, 214, 273, 176
7680, 0.600000, 61, 214, 274, 191
7680, 0.600000, 61, 216, 275, 191
7680, 0.600000, 61, 222, 281, 191
7680, 0.600000, 61, 218, 277, 188
7680, 1.100000, 84, 214, 274, 191
7680, 1.100000, 83, 217, 276, 175
7680, 1.100000, 84, 217, 276, 178
7680, 1.100000, 82, 215, 274, 191
7680, 1.100000, 84, 216, 275, 192
7680, 1.100000, 82, 216, 277, 192
7680, 1.100000, 84, 215, 275, 193
7680, 1.100000, 82, 213, 273, 191
7680, 1.100000, 80, 212, 271, 191
7680, 1.100000, 80, 216, 276, 192
10240, 0.600000, 98, 379, 484, 421
10240, 0.600000, 103, 371, 480, 425
10240, 0.600000, 102, 381, 487, 455
10240, 0.600000, 102, 377, 482, 448
10240, 0.600000, 103, 378, 484, 457
10240, 0.600000, 102, 382, 485, 434
10240, 0.600000, 102, 376, 481, 450
10240, 0.600000, 102, 377, 483, 462
10240, 0.600000, 102, 380, 486, 433
10240, 0.600000, 102, 379, 485, 441
10240, 1.100000, 148, 386, 492, 427
10240, 1.100000, 148, 385, 491, 445
10240, 1.100000, 134, 382, 487, 433
10240, 1.100000, 148, 384, 490, 454
10240, 1.100000, 144, 376, 482, 440
10240, 1.100000, 148, 383, 488, 434
10240, 1.100000, 148, 378, 483, 454
10240, 1.100000, 148, 385, 490, 443
10240, 1.100000, 144, 382, 487, 445
10240, 1.100000, 148, 394, 499, 439
