1024, 0.600000, 4, 8, 444, 451
1024, 0.600000, 4, 8, 275, 279
1024, 0.600000, 4, 8, 668, 672
1024, 0.600000, 4, 8, 285, 290
1024, 0.600000, 4, 8, 268, 273
1024, 0.600000, 4, 8, 276, 281
1024, 0.600000, 4, 8, 608, 613
1024, 0.600000, 4, 8, 238, 243
1024, 0.600000, 4, 8, 307, 312
1024, 0.600000, 4, 8, 403, 408
1024, 1.100000, 4, 8, 225, 230
1024, 1.100000, 4, 8, 276, 281
1024, 1.100000, 4, 8, 351, 356
1024, 1.100000, 4, 8, 768, 774
1024, 1.100000, 4, 8, 225, 230
1024, 1.100000, 4, 8, 1104, 1109
1024, 1.100000, 4, 8, 279, 284
1024, 1.100000, 4, 8, 284, 290
1024, 1.100000, 4, 8, 265, 270
1024, 1.100000, 4, 8, 279, 284
2048, 0.600000, 4, 8, 830, 842
2048, 0.600000, 4, 8, 1244, 1255
2048, 0.600000, 4, 8, 1498, 1507
2048, 0.600000, 4, 8, 1283, 1294
2048, 0.600000, 4, 8, 1841, 1851
2048, 0.600000, 4, 8, 926, 938
2048, 0.600000, 4, 8, 834, 844
2048, 0.600000, 4, 8, 1251, 1263
2048, 0.600000, 4, 8, 1255, 1265
2048, 0.600000, 4, 8, 2189, 2198
2048, 1.100000, 4, 8, 1339, 1348
2048, 1.100000, 4, 8, 1165, 1176
2048, 1.100000, 4, 8, 2213, 2224
2048, 1.100000, 4, 8, 1576, 1589
2048, 1.100000, 4, 8, 3571, 3581
2048, 1.100000, 4, 8, 947, 958
2048, 1.100000, 4, 8, 1088, 1098
2048, 1.100000, 4, 8, 1338, 1350
2048, 1.100000, 4, 8, 1041, 1052
2048, 1.100000, 4, 8, 1877, 1888
4096, 0.600000, 4, 8, 5425, 5469
4096, 0.600000, 4, 8, 4969, 5001
4096, 0.600000, 4, 8, 5191, 5224
4096, 0.600000, 4, 8, 4304, 4340
4096, 0.600000, 4, 8, 4512, 4546
4096, 0.600000, 4, 8, 5677, 5709
4096, 0.600000, 4, 8, 6600, 6635
4096, 0.600000, 4, 8, 7728, 7764
4096, 0.600000, 4, 8, 6893, 6930
4096, 0.600000, 4, 8, 7487, 7518
4096, 1.100000, 4, 8, 4566, 4599
4096, 1.100000, 4, 8, 6468, 6499
4096, 1.100000, 4, 8, 6741, 6776
4096, 1.100000, 4, 8, 4573, 4608
4096, 1.100000, 4, 8, 5140, 5174
4096, 1.100000, 4, 8, 5116, 5152
4096, 1.100000, 4, 8, 4986, 5019
4096, 1.100000, 4, 8, 5854, 5888
4096, 1.100000, 4, 8, 5421, 5455
4096, 1.100000, 4, 8, 4621, 4655
7680, 0.600000, 4, 8, 18790, 18926
7680, 0.600000, 4, 8, 20375, 20490
7680, 0.600000, 4, 8, 16781, 16894
7680, 0.600000, 4, 8, 16949, 17057
7680, 0.600000, 4, 8, 19335, 19449
7680, 0.600000, 4, 8, 20293, 20407
7680, 0.600000, 4, 8, 16181, 16293
7680, 0.600000, 4, 8, 21462, 21585
7680, 0.600000, 4, 8, 22004, 22118
7680, 0.600000, 4, 8, 22170, 22285
7680, 1.100000, 4, 8, 25190, 25306
7680, 1.100000, 4, 8, 22389, 22502
7680, 1.100000, 4, 8, 24738, 24841
7680, 1.100000, 4, 8, 21045, 21167
7680, 1.100000, 4, 8, 21406, 21524
7680, 1.100000, 4, 8, 19885, 19999
7680, 1.100000, 4, 8, 22526, 22633
7680, 1.100000, 4, 8, 23038, 23151
7680, 1.100000, 4, 8, 26401, 26509
7680, 1.100000, 4, 8, 24630, 24742
10240, 0.600000, 4, 8, 36597, 36788
10240, 0.600000, 4, 8, 33109, 33294
10240, 0.600000, 4, 8, 35913, 36097
10240, 0.600000, 4, 8, 39881, 40066
10240, 0.600000, 4, 8, 38439, 38629
10240, 0.600000, 4, 8, 33686, 33875
10240, 0.600000, 4, 8, 34338, 34531
10240, 0.600000, 4, 8, 40608, 40808
10240, 0.600000, 4, 8, 41233, 41421
10240, 0.600000, 4, 8, 33459, 33653
10240, 1.100000, 4, 8, 34116, 34298
10240, 1.100000, 4, 8, 31775, 31966
10240, 1.100000, 4, 8, 36473, 36664
10240, 1.100000, 4, 8, 44260, 44457
10240, 1.100000, 4, 8, 47186, 47371
10240, 1.100000, 4, 8, 44192, 44381
10240, 1.100000, 4, 8, 36793, 36984
10240, 1.100000, 4, 8, 33486, 33667
10240, 1.100000, 4, 8, 33477, 33657
10240, 1.100000, 4, 8, 42719, 42906
12800, 0.600000, 4, 8, 56255, 56553
12800, 0.600000, 4, 8, 54693, 54977
12800, 0.600000, 4, 8, 60838, 61144
12800, 0.600000, 4, 8, 49738, 50028
12800, 0.600000, 4, 8, 48112, 48389
12800, 0.600000, 4, 8, 48491, 48778
12800, 0.600000, 4, 8, 48918, 49215
12800, 0.600000, 4, 8, 44956, 45238
12800, 0.600000, 4, 8, 48036, 48318
12800, 0.600000, 4, 8, 52994, 53281
12800, 1.100000, 4, 8, 62284, 62572
12800, 1.100000, 4, 8, 58585, 58877
12800, 1.100000, 4, 8, 51893, 52193
12800, 1.100000, 4, 8, 52520, 52814
12800, 1.100000, 4, 8, 55162, 55452
12800, 1.100000, 4, 8, 59212, 59501
12800, 1.100000, 4, 8, 62510, 62801
12800, 1.100000, 4, 8, 52840, 53121
12800, 1.100000, 4, 8, 45273, 45565
12800, 1.100000, 4, 8, 38634, 38917
