15.425179,256, -51.323261,4, 672.000000
15.425181,256, -51.322704,4, 657.000000
15.425179,256, -51.322746,4, 487.000000
15.425178,256, -51.323208,4, 499.000000
15.425181,256, -51.322708,4, 499.000000
15.425179,256, -51.322914,8, 538.000000
15.425178,256, -51.464115,8, 490.000000
15.425179,256, -51.327370,8, 488.000000
15.425177,256, -51.322994,8, 490.000000
15.425179,256, -51.323185,8, 494.000000
15.425175,256, -51.322689,16, 503.000000
15.425177,256, -51.323654,16, 513.000000
15.425182,256, -51.329155,16, 658.000000
15.425182,256, -51.322769,16, 647.000000
15.425180,256, -51.322876,16, 647.000000
10.689529,512, -64.209091,4, 2150.000000
10.689518,512, -64.208702,4, 2164.000000
10.689544,512, -64.204132,4, 2019.000000
10.689560,512, -64.204185,4, 1984.000000
10.689619,512, -64.204163,4, 1955.000000
10.689559,512, -64.208702,8, 2020.000000
10.689583,512, -64.208702,8, 2056.000000
10.689578,512, -64.208702,8, 2150.000000
10.689572,512, -64.208641,8, 2152.000000
10.689544,512, -64.208389,8, 2045.000000
10.689533,512, -64.204117,16, 2091.000000
10.689577,512, -64.204071,16, 2042.000000
10.689545,512, -64.208694,16, 2030.000000
10.689588,512, -64.208725,16, 2004.000000
10.689547,512, -64.209091,16, 2224.000000
10.684910,1024, -70.963417,4, 8532.000000
10.684828,1024, -70.963417,4, 8292.000000
10.684794,1024, -70.963524,4, 8155.000000
10.684719,1024, -70.963417,4, 7951.000000
10.684381,1024, -70.963417,4, 8071.000000
10.684648,1024, -70.963425,8, 8110.000000
10.684713,1024, -70.963417,8, 8312.000000
10.684374,1024, -70.963425,8, 8780.000000
10.684813,1024, -70.963417,8, 8209.000000
10.683999,1024, -70.963417,8, 8369.000000
10.684351,1024, -70.963440,16, 8422.000000
10.684359,1024, -70.963417,16, 8304.000000
10.684752,1024, -70.963417,16, 8101.000000
10.684189,1024, -70.963425,16, 8110.000000
10.684725,1024, -70.963417,16, 8509.000000
10.681933,2048, -67.889954,4, 32480.000000
10.682198,2048, -67.889954,4, 33213.000000
10.681511,2048, -67.889954,4, 32139.000000
10.681525,2048, -67.889954,4, 34677.000000
10.681374,2048, -67.889954,4, 32685.000000
10.681610,2048, -67.889954,8, 36315.000000
10.681627,2048, -67.889954,8, 33419.000000
10.681497,2048, -67.889954,8, 32652.000000
10.681616,2048, -67.889954,8, 32442.000000
10.681570,2048, -67.889954,8, 33045.000000
10.681706,2048, -67.889954,16, 32976.000000
10.681540,2048, -67.889954,16, 33460.000000
10.681558,2048, -67.889954,16, 33190.000000
10.681774,2048, -67.889954,16, 34845.000000
10.681602,2048, -67.889954,16, 32929.000000
10.677520,3072, 35.963196,4, 74399.000000
10.677472,3072, 35.963196,4, 75786.000000
10.677084,3072, 35.963196,4, 72669.000000
10.676649,3072, 35.963196,4, 74283.000000
10.677004,3072, 35.963196,4, 77643.000000
10.679337,3072, 35.963196,8, 75604.000000
10.680660,3072, 35.963196,8, 74053.000000
10.679446,3072, 35.963196,8, 79071.000000
10.678874,3072, 35.963196,8, 74597.000000
10.679987,3072, 35.963196,8, 73605.000000
10.679714,3072, 35.963196,16, 74270.000000
10.678615,3072, 35.963196,16, 75079.000000
10.678235,3072, 35.963196,16, 73797.000000
10.678147,3072, 35.963196,16, 74767.000000
10.678389,3072, 35.963196,16, 74579.000000
